{
  "extends": ["github>whitesource/merge-confidence:beta"],
  "regexManagers": [
    {
      "fileMatch": [
        "(^|/).gitlab-ci.yml$"
      ],
      "matchStrings": [
        "#\\s*renovate:\\s*datasource=(?<datasource>.*?) depName=(?<depName>.*?)( versioning=(?<versioning>.*?))?\\s.*?_VERSION: \"?(?<currentValue>.*?)\"?\\s"
      ],
      "versioningTemplate": "{{#if versioning}}{{versioning}}{{else}}semver{{/if}}"
    }
  ]
}
